\begin{thebibliography}{Unk13}

\bibitem[Nov04]{redhat}
Diego Novillo.
\newblock From source to binary: The inner workings of gcc, 2004.
\newblock \url{https://www.redhat.com/magazine/002dec04/features/gcc/}, visited
  2016-03-13.

\bibitem[Unk13]{gccmaketut}
Unknown.
\newblock Gcc and make compiling, linking and building c/c++ applications,
  2013.
\newblock
  \url{https://www3.ntu.edu.sg/home/ehchua/programming/cpp/gcc_make.html},
  visited 2016-03-13.

\end{thebibliography}
