\relax 
\providecommand\hyper@newdestlabel[2]{}
\providecommand\HyperFirstAtBeginDocument{\AtBeginDocument}
\HyperFirstAtBeginDocument{\ifx\hyper@anchor\@undefined
\global\let\oldcontentsline\contentsline
\gdef\contentsline#1#2#3#4{\oldcontentsline{#1}{#2}{#3}}
\global\let\oldnewlabel\newlabel
\gdef\newlabel#1#2{\newlabelxx{#1}#2}
\gdef\newlabelxx#1#2#3#4#5#6{\oldnewlabel{#1}{{#2}{#3}}}
\AtEndDocument{\ifx\hyper@anchor\@undefined
\let\contentsline\oldcontentsline
\let\newlabel\oldnewlabel
\fi}
\fi}
\global\let\hyper@last\relax 
\gdef\HyperFirstAtBeginDocument#1{#1}
\providecommand\HyField@AuxAddToFields[1]{}
\providecommand\HyField@AuxAddToCoFields[2]{}
\select@language{english}
\@writefile{toc}{\select@language{english}}
\@writefile{lof}{\select@language{english}}
\@writefile{lot}{\select@language{english}}
\citation{redhat}
\citation{redhat}
\citation{redhat}
\@writefile{toc}{\contentsline {section}{\numberline {1}Introduction}{2}{section.1}}
\@writefile{toc}{\contentsline {section}{\numberline {2}Components \cite  {redhat}}{2}{section.2}}
\newlabel{components}{{2}{2}{Components \cite {redhat}}{section.2}{}}
\@writefile{lof}{\contentsline {figure}{\numberline {1}{\ignorespaces GCC Phases \cite  {redhat}}}{2}{figure.1}}
\newlabel{fig:gcc_phases}{{1}{2}{GCC Phases \cite {redhat}}{figure.1}{}}
\citation{redhat}
\@writefile{lof}{\contentsline {figure}{\numberline {2}{\ignorespaces Abstract syntax tree \cite  {redhat}}}{3}{figure.2}}
\newlabel{fig:Ast}{{2}{3}{Abstract syntax tree \cite {redhat}}{figure.2}{}}
\@writefile{toc}{\contentsline {subsection}{\numberline {2.1}Important Internal Structures - IR}{3}{subsection.2.1}}
\newlabel{internal}{{2.1}{3}{Important Internal Structures - IR}{subsection.2.1}{}}
\@writefile{toc}{\contentsline {subsubsection}{\numberline {2.1.1}Abstract Syntax Trees}{3}{subsubsection.2.1.1}}
\@writefile{toc}{\contentsline {subsubsection}{\numberline {2.1.2}GENERIC}{3}{subsubsection.2.1.2}}
\@writefile{lof}{\contentsline {figure}{\numberline {3}{\ignorespaces Tree SSA Phases \cite  {redhat}}}{4}{figure.3}}
\newlabel{fig:tree-ssa-phases}{{3}{4}{Tree SSA Phases \cite {redhat}}{figure.3}{}}
\newlabel{generic}{{1}{4}{GENERIC: {\url {https://www.redhat.com/magazine/002dec04/features/gcc/} , visited 2016-03-16.}}{lstlisting.1}{}}
\@writefile{lol}{\contentsline {lstlisting}{\numberline {1}GENERIC: {\url  {https://www.redhat.com/magazine/002dec04/features/gcc/} , visited 2016-03-16.}}{4}{lstlisting.1}}
\@writefile{toc}{\contentsline {subsubsection}{\numberline {2.1.3}GIMPLE}{4}{subsubsection.2.1.3}}
\newlabel{gimple}{{2}{4}{GIMPLE: {\url {https://www.redhat.com/magazine/002dec04/features/gcc/} , visited 2016-03-16.}}{lstlisting.2}{}}
\@writefile{lol}{\contentsline {lstlisting}{\numberline {2}GIMPLE: {\url  {https://www.redhat.com/magazine/002dec04/features/gcc/} , visited 2016-03-16.}}{4}{lstlisting.2}}
\citation{gccmaketut}
\citation{gccmaketut}
\@writefile{toc}{\contentsline {subsubsection}{\numberline {2.1.4}Tree SSA Optimizer}{5}{subsubsection.2.1.4}}
\newlabel{nocalc}{{3}{5}{No need to recomputate}{lstlisting.3}{}}
\@writefile{lol}{\contentsline {lstlisting}{\numberline {3}No need to recomputate}{5}{lstlisting.3}}
\newlabel{calc}{{4}{5}{Need to computate on runtime}{lstlisting.4}{}}
\@writefile{lol}{\contentsline {lstlisting}{\numberline {4}Need to computate on runtime}{5}{lstlisting.4}}
\@writefile{toc}{\contentsline {section}{\numberline {3}Compilation Process++ \cite  {gccmaketut}}{5}{section.3}}
\newlabel{compilation}{{3}{5}{Compilation Process++ \cite {gccmaketut}}{section.3}{}}
\bibdata{biblio}
\bibcite{redhat}{Nov04}
\bibcite{gccmaketut}{Unk13}
\bibstyle{alpha}
\@writefile{lof}{\contentsline {figure}{\numberline {4}{\ignorespaces GCC Compilation Process \cite  {gccmaketut}}}{6}{figure.4}}
\newlabel{fig:gcc_compilation_process}{{4}{6}{GCC Compilation Process \cite {gccmaketut}}{figure.4}{}}
